info face="font1_20" size=20 bold=0 italic=0 charset="" unicode=1 stretchH=100 smooth=1 aa=2 padding=0,0,0,0 spacing=0,0
common lineHeight=23 base=19 scaleW=1 scaleH=1 pages=1 packed=0 alphaChnl=0 redChnl=0 greenChnl=0 blueChnl=0
page id=0 file="font1_20/font1_20.png"
chars count=193
char id=0    x=4    y=2    width=0    height=0    xoffset=0    yoffset=19   xadvance=0    page=0    chnl=0
char id=32   x=0    y=0    width=5    height=0    xoffset=0    yoffset=0    xadvance=5    page=0    chnl=0
char id=33   x=6    y=328  width=2    height=15   xoffset=2    yoffset=4    xadvance=6    page=0    chnl=0
char id=34   x=2    y=483  width=4    height=5    xoffset=1    yoffset=4    xadvance=6    page=0    chnl=0
char id=35   x=29   y=485  width=11   height=15   xoffset=1    yoffset=4    xadvance=13   page=0    chnl=0
char id=36   x=100  y=4    width=9    height=19   xoffset=1    yoffset=2    xadvance=11   page=0    chnl=0
char id=37   x=72   y=43   width=13   height=15   xoffset=1    yoffset=4    xadvance=15   page=0    chnl=0
char id=38   x=29   y=451  width=12   height=15   xoffset=1    yoffset=4    xadvance=13   page=0    chnl=0
char id=39   x=2    y=476  width=2    height=5    xoffset=1    yoffset=4    xadvance=4    page=0    chnl=0
char id=40   x=2    y=4    width=6    height=22   xoffset=1    yoffset=2    xadvance=7    page=0    chnl=0
char id=41   x=2    y=28   width=6    height=22   xoffset=0    yoffset=2    xadvance=7    page=0    chnl=0
char id=42   x=294  y=43   width=10   height=9    xoffset=0    yoffset=4    xadvance=9    page=0    chnl=0
char id=43   x=196  y=43   width=10   height=11   xoffset=1    yoffset=7    xadvance=12   page=0    chnl=0
char id=44   x=2    y=468  width=3    height=6    xoffset=0    yoffset=17   xadvance=4    page=0    chnl=0
char id=45   x=2    y=505  width=5    height=2    xoffset=1    yoffset=12   xadvance=7    page=0    chnl=0
char id=46   x=6    y=476  width=2    height=3    xoffset=1    yoffset=16   xadvance=4    page=0    chnl=0
char id=47   x=444  y=4    width=8    height=16   xoffset=0    yoffset=4    xadvance=8    page=0    chnl=0
char id=48   x=29   y=366  width=9    height=15   xoffset=1    yoffset=4    xadvance=11   page=0    chnl=0
char id=49   x=2    y=345  width=6    height=15   xoffset=1    yoffset=4    xadvance=11   page=0    chnl=0
char id=50   x=29   y=230  width=9    height=15   xoffset=1    yoffset=4    xadvance=11   page=0    chnl=0
char id=51   x=29   y=247  width=9    height=15   xoffset=1    yoffset=4    xadvance=11   page=0    chnl=0
char id=52   x=29   y=264  width=10   height=15   xoffset=1    yoffset=4    xadvance=12   page=0    chnl=0
char id=53   x=29   y=281  width=10   height=15   xoffset=1    yoffset=4    xadvance=12   page=0    chnl=0
char id=54   x=29   y=298  width=9    height=15   xoffset=1    yoffset=4    xadvance=11   page=0    chnl=0
char id=55   x=29   y=315  width=10   height=15   xoffset=1    yoffset=4    xadvance=12   page=0    chnl=0
char id=56   x=29   y=332  width=9    height=15   xoffset=1    yoffset=4    xadvance=11   page=0    chnl=0
char id=57   x=29   y=349  width=9    height=15   xoffset=1    yoffset=4    xadvance=11   page=0    chnl=0
char id=58   x=6    y=362  width=2    height=11   xoffset=1    yoffset=8    xadvance=4    page=0    chnl=0
char id=59   x=2    y=378  width=3    height=14   xoffset=0    yoffset=8    xadvance=4    page=0    chnl=0
char id=60   x=19   y=249  width=8    height=10   xoffset=1    yoffset=8    xadvance=10   page=0    chnl=0
char id=61   x=19   y=291  width=8    height=6    xoffset=1    yoffset=9    xadvance=10   page=0    chnl=0
char id=62   x=283  y=43   width=9    height=10   xoffset=1    yoffset=8    xadvance=10   page=0    chnl=0
char id=63   x=19   y=129  width=8    height=15   xoffset=1    yoffset=4    xadvance=10   page=0    chnl=0
char id=64   x=82   y=4    width=16   height=19   xoffset=1    yoffset=4    xadvance=18   page=0    chnl=0
char id=65   x=29   y=26   width=13   height=15   xoffset=0    yoffset=4    xadvance=13   page=0    chnl=0
char id=66   x=87   y=26   width=10   height=15   xoffset=2    yoffset=4    xadvance=13   page=0    chnl=0
char id=67   x=178  y=26   width=11   height=15   xoffset=1    yoffset=4    xadvance=13   page=0    chnl=0
char id=68   x=191  y=26   width=10   height=15   xoffset=2    yoffset=4    xadvance=13   page=0    chnl=0
char id=69   x=203  y=26   width=9    height=15   xoffset=2    yoffset=4    xadvance=12   page=0    chnl=0
char id=70   x=214  y=26   width=9    height=15   xoffset=2    yoffset=4    xadvance=12   page=0    chnl=0
char id=71   x=225  y=26   width=11   height=15   xoffset=1    yoffset=4    xadvance=13   page=0    chnl=0
char id=72   x=238  y=26   width=11   height=15   xoffset=2    yoffset=4    xadvance=15   page=0    chnl=0
char id=73   x=2    y=311  width=2    height=15   xoffset=2    yoffset=4    xadvance=6    page=0    chnl=0
char id=74   x=251  y=26   width=9    height=15   xoffset=1    yoffset=4    xadvance=12   page=0    chnl=0
char id=75   x=262  y=26   width=11   height=15   xoffset=2    yoffset=4    xadvance=13   page=0    chnl=0
char id=76   x=275  y=26   width=9    height=15   xoffset=2    yoffset=4    xadvance=11   page=0    chnl=0
char id=77   x=286  y=26   width=14   height=15   xoffset=2    yoffset=4    xadvance=18   page=0    chnl=0
char id=78   x=318  y=26   width=11   height=15   xoffset=2    yoffset=4    xadvance=15   page=0    chnl=0
char id=79   x=331  y=26   width=11   height=15   xoffset=1    yoffset=4    xadvance=13   page=0    chnl=0
char id=80   x=344  y=26   width=10   height=15   xoffset=2    yoffset=4    xadvance=13   page=0    chnl=0
char id=81   x=333  y=4    width=12   height=18   xoffset=1    yoffset=4    xadvance=13   page=0    chnl=0
char id=82   x=378  y=26   width=11   height=15   xoffset=2    yoffset=4    xadvance=13   page=0    chnl=0
char id=83   x=417  y=26   width=10   height=15   xoffset=1    yoffset=4    xadvance=12   page=0    chnl=0
char id=84   x=452  y=26   width=11   height=15   xoffset=1    yoffset=4    xadvance=13   page=0    chnl=0
char id=85   x=465  y=26   width=10   height=15   xoffset=1    yoffset=4    xadvance=12   page=0    chnl=0
char id=86   x=477  y=26   width=13   height=15   xoffset=0    yoffset=4    xadvance=13   page=0    chnl=0
char id=87   x=29   y=43   width=18   height=15   xoffset=0    yoffset=4    xadvance=18   page=0    chnl=0
char id=88   x=492  y=26   width=13   height=15   xoffset=0    yoffset=4    xadvance=13   page=0    chnl=0
char id=89   x=29   y=60   width=12   height=15   xoffset=0    yoffset=4    xadvance=12   page=0    chnl=0
char id=90   x=29   y=77   width=10   height=15   xoffset=1    yoffset=4    xadvance=12   page=0    chnl=0
char id=91   x=2    y=75   width=4    height=20   xoffset=1    yoffset=2    xadvance=5    page=0    chnl=0
char id=92   x=454  y=4    width=9    height=16   xoffset=0    yoffset=4    xadvance=8    page=0    chnl=0
char id=93   x=2    y=97   width=4    height=20   xoffset=1    yoffset=2    xadvance=6    page=0    chnl=0
char id=94   x=19   y=281  width=8    height=8    xoffset=0    yoffset=4    xadvance=8    page=0    chnl=0
char id=95   x=410  y=22   width=9    height=2    xoffset=1    yoffset=18   xadvance=11   page=0    chnl=0
char id=96   x=2    y=490  width=5    height=3    xoffset=0    yoffset=4    xadvance=6    page=0    chnl=0
char id=97   x=208  y=43   width=9    height=11   xoffset=1    yoffset=8    xadvance=10   page=0    chnl=0
char id=98   x=29   y=94   width=9    height=15   xoffset=1    yoffset=4    xadvance=11   page=0    chnl=0
char id=99   x=231  y=43   width=9    height=11   xoffset=1    yoffset=8    xadvance=11   page=0    chnl=0
char id=100  x=29   y=111  width=9    height=15   xoffset=1    yoffset=4    xadvance=11   page=0    chnl=0
char id=101  x=260  y=43   width=9    height=11   xoffset=1    yoffset=8    xadvance=11   page=0    chnl=0
char id=102  x=10   y=27   width=7    height=16   xoffset=1    yoffset=3    xadvance=8    page=0    chnl=0
char id=103  x=29   y=145  width=9    height=15   xoffset=1    yoffset=8    xadvance=11   page=0    chnl=0
char id=104  x=19   y=112  width=8    height=15   xoffset=1    yoffset=4    xadvance=10   page=0    chnl=0
char id=105  x=6    y=311  width=2    height=15   xoffset=2    yoffset=4    xadvance=5    page=0    chnl=0
char id=106  x=2    y=119  width=4    height=19   xoffset=-1   yoffset=4    xadvance=4    page=0    chnl=0
char id=107  x=29   y=162  width=9    height=15   xoffset=1    yoffset=4    xadvance=10   page=0    chnl=0
char id=108  x=2    y=328  width=2    height=15   xoffset=2    yoffset=4    xadvance=5    page=0    chnl=0
char id=109  x=179  y=43   width=15   height=11   xoffset=1    yoffset=8    xadvance=17   page=0    chnl=0
char id=110  x=19   y=236  width=8    height=11   xoffset=1    yoffset=8    xadvance=10   page=0    chnl=0
char id=111  x=167  y=43   width=10   height=11   xoffset=1    yoffset=8    xadvance=12   page=0    chnl=0
char id=112  x=29   y=179  width=9    height=15   xoffset=1    yoffset=8    xadvance=11   page=0    chnl=0
char id=113  x=29   y=196  width=9    height=15   xoffset=1    yoffset=8    xadvance=12   page=0    chnl=0
char id=114  x=2    y=410  width=5    height=12   xoffset=1    yoffset=7    xadvance=7    page=0    chnl=0
char id=115  x=19   y=197  width=8    height=11   xoffset=1    yoffset=8    xadvance=10   page=0    chnl=0
char id=116  x=2    y=394  width=6    height=14   xoffset=1    yoffset=5    xadvance=8    page=0    chnl=0
char id=117  x=19   y=210  width=8    height=11   xoffset=1    yoffset=8    xadvance=10   page=0    chnl=0
char id=118  x=126  y=43   width=10   height=11   xoffset=0    yoffset=8    xadvance=10   page=0    chnl=0
char id=119  x=138  y=43   width=15   height=11   xoffset=0    yoffset=8    xadvance=15   page=0    chnl=0
char id=120  x=155  y=43   width=10   height=11   xoffset=0    yoffset=8    xadvance=10   page=0    chnl=0
char id=121  x=29   y=213  width=10   height=15   xoffset=0    yoffset=8    xadvance=9    page=0    chnl=0
char id=122  x=19   y=223  width=8    height=11   xoffset=1    yoffset=8    xadvance=10   page=0    chnl=0
char id=123  x=2    y=52   width=6    height=21   xoffset=1    yoffset=3    xadvance=7    page=0    chnl=0
char id=124  x=6    y=203  width=2    height=17   xoffset=2    yoffset=4    xadvance=6    page=0    chnl=0
char id=125  x=10   y=4    width=7    height=21   xoffset=-1   yoffset=3    xadvance=7    page=0    chnl=0
char id=126  x=306  y=43   width=11   height=4    xoffset=1    yoffset=11   xadvance=13   page=0    chnl=0
char id=160  x=6    y=2    width=0    height=0    xoffset=0    yoffset=19   xadvance=5    page=0    chnl=0
char id=161  x=2    y=362  width=2    height=14   xoffset=2    yoffset=8    xadvance=5    page=0    chnl=0
char id=162  x=479  y=4    width=9    height=16   xoffset=1    yoffset=5    xadvance=11   page=0    chnl=0
char id=163  x=429  y=26   width=10   height=15   xoffset=1    yoffset=4    xadvance=12   page=0    chnl=0
char id=164  x=99   y=43   width=14   height=14   xoffset=0    yoffset=6    xadvance=14   page=0    chnl=0
char id=165  x=403  y=26   width=12   height=15   xoffset=-1   yoffset=4    xadvance=10   page=0    chnl=0
char id=166  x=2    y=203  width=2    height=18   xoffset=1    yoffset=4    xadvance=4    page=0    chnl=0
char id=167  x=19   y=4    width=10   height=20   xoffset=1    yoffset=4    xadvance=12   page=0    chnl=0
char id=168  x=10   y=63   width=6    height=2    xoffset=1    yoffset=4    xadvance=8    page=0    chnl=0
char id=169  x=490  y=4    width=14   height=16   xoffset=1    yoffset=4    xadvance=16   page=0    chnl=0
char id=170  x=10   y=54   width=7    height=7    xoffset=1    yoffset=5    xadvance=9    page=0    chnl=0
char id=171  x=19   y=271  width=8    height=8    xoffset=1    yoffset=9    xadvance=9    page=0    chnl=0
char id=172  x=29   y=502  width=9    height=5    xoffset=1    yoffset=11   xadvance=12   page=0    chnl=0
char id=173  x=10   y=67   width=5    height=2    xoffset=1    yoffset=12   xadvance=7    page=0    chnl=0
char id=174  x=302  y=26   width=14   height=15   xoffset=1    yoffset=4    xadvance=16   page=0    chnl=0
char id=175  x=10   y=71   width=7    height=2    xoffset=1    yoffset=4    xadvance=9    page=0    chnl=0
char id=176  x=2    y=460  width=5    height=6    xoffset=1    yoffset=3    xadvance=7    page=0    chnl=0
char id=177  x=115  y=43   width=9    height=13   xoffset=1    yoffset=6    xadvance=11   page=0    chnl=0
char id=178  x=2    y=443  width=6    height=7    xoffset=1    yoffset=5    xadvance=8    page=0    chnl=0
char id=179  x=2    y=434  width=6    height=7    xoffset=1    yoffset=5    xadvance=7    page=0    chnl=0
char id=180  x=2    y=500  width=5    height=3    xoffset=1    yoffset=4    xadvance=6    page=0    chnl=0
char id=181  x=19   y=78   width=8    height=15   xoffset=1    yoffset=8    xadvance=11   page=0    chnl=0
char id=182  x=19   y=61   width=8    height=15   xoffset=0    yoffset=4    xadvance=9    page=0    chnl=0
char id=183  x=2    y=495  width=2    height=3    xoffset=1    yoffset=10   xadvance=4    page=0    chnl=0
char id=184  x=2    y=452  width=4    height=6    xoffset=1    yoffset=18   xadvance=6    page=0    chnl=0
char id=185  x=2    y=424  width=5    height=8    xoffset=0    yoffset=4    xadvance=7    page=0    chnl=0
char id=186  x=10   y=45   width=7    height=7    xoffset=1    yoffset=5    xadvance=9    page=0    chnl=0
char id=187  x=19   y=261  width=8    height=8    xoffset=1    yoffset=9    xadvance=9    page=0    chnl=0
char id=188  x=163  y=26   width=13   height=15   xoffset=1    yoffset=4    xadvance=15   page=0    chnl=0
char id=189  x=147  y=26   width=14   height=15   xoffset=1    yoffset=4    xadvance=16   page=0    chnl=0
char id=190  x=132  y=26   width=13   height=15   xoffset=1    yoffset=4    xadvance=15   page=0    chnl=0
char id=191  x=19   y=44   width=8    height=15   xoffset=1    yoffset=8    xadvance=10   page=0    chnl=0
char id=192  x=111  y=4    width=13   height=19   xoffset=0    yoffset=0    xadvance=13   page=0    chnl=0
char id=193  x=126  y=4    width=13   height=19   xoffset=0    yoffset=0    xadvance=13   page=0    chnl=0
char id=194  x=141  y=4    width=13   height=19   xoffset=0    yoffset=0    xadvance=13   page=0    chnl=0
char id=195  x=156  y=4    width=13   height=19   xoffset=0    yoffset=0    xadvance=13   page=0    chnl=0
char id=196  x=359  y=4    width=14   height=18   xoffset=-1   yoffset=1    xadvance=12   page=0    chnl=0
char id=197  x=31   y=4    width=14   height=20   xoffset=-1   yoffset=-1   xadvance=12   page=0    chnl=0
char id=198  x=66   y=26   width=19   height=15   xoffset=-1   yoffset=4    xadvance=19   page=0    chnl=0
char id=199  x=171  y=4    width=12   height=19   xoffset=1    yoffset=4    xadvance=13   page=0    chnl=0
char id=200  x=185  y=4    width=9    height=19   xoffset=2    yoffset=0    xadvance=12   page=0    chnl=0
char id=201  x=196  y=4    width=9    height=19   xoffset=2    yoffset=0    xadvance=12   page=0    chnl=0
char id=202  x=207  y=4    width=9    height=19   xoffset=2    yoffset=0    xadvance=12   page=0    chnl=0
char id=203  x=375  y=4    width=9    height=18   xoffset=2    yoffset=1    xadvance=12   page=0    chnl=0
char id=204  x=2    y=140  width=5    height=19   xoffset=-1   yoffset=0    xadvance=6    page=0    chnl=0
char id=205  x=2    y=161  width=5    height=19   xoffset=1    yoffset=0    xadvance=6    page=0    chnl=0
char id=206  x=2    y=182  width=6    height=19   xoffset=0    yoffset=0    xadvance=6    page=0    chnl=0
char id=207  x=2    y=223  width=6    height=18   xoffset=0    yoffset=1    xadvance=6    page=0    chnl=0
char id=208  x=29   y=417  width=12   height=15   xoffset=1    yoffset=4    xadvance=14   page=0    chnl=0
char id=209  x=218  y=4    width=11   height=19   xoffset=2    yoffset=0    xadvance=15   page=0    chnl=0
char id=210  x=231  y=4    width=11   height=19   xoffset=1    yoffset=0    xadvance=13   page=0    chnl=0
char id=211  x=244  y=4    width=11   height=19   xoffset=1    yoffset=0    xadvance=13   page=0    chnl=0
char id=212  x=257  y=4    width=11   height=19   xoffset=1    yoffset=0    xadvance=13   page=0    chnl=0
char id=213  x=270  y=4    width=11   height=19   xoffset=1    yoffset=0    xadvance=13   page=0    chnl=0
char id=214  x=386  y=4    width=11   height=18   xoffset=1    yoffset=1    xadvance=13   page=0    chnl=0
char id=215  x=271  y=43   width=10   height=10   xoffset=0    yoffset=7    xadvance=11   page=0    chnl=0
char id=216  x=465  y=4    width=12   height=16   xoffset=1    yoffset=4    xadvance=13   page=0    chnl=0
char id=217  x=283  y=4    width=10   height=19   xoffset=1    yoffset=0    xadvance=12   page=0    chnl=0
char id=218  x=295  y=4    width=10   height=19   xoffset=1    yoffset=0    xadvance=12   page=0    chnl=0
char id=219  x=307  y=4    width=10   height=19   xoffset=1    yoffset=0    xadvance=12   page=0    chnl=0
char id=220  x=347  y=4    width=10   height=18   xoffset=1    yoffset=1    xadvance=12   page=0    chnl=0
char id=221  x=319  y=4    width=12   height=19   xoffset=0    yoffset=0    xadvance=12   page=0    chnl=0
char id=222  x=356  y=26   width=9    height=15   xoffset=2    yoffset=4    xadvance=12   page=0    chnl=0
char id=223  x=391  y=26   width=10   height=15   xoffset=1    yoffset=4    xadvance=12   page=0    chnl=0
char id=224  x=99   y=26   width=9    height=15   xoffset=1    yoffset=4    xadvance=10   page=0    chnl=0
char id=225  x=121  y=26   width=9    height=15   xoffset=1    yoffset=4    xadvance=10   page=0    chnl=0
char id=226  x=110  y=26   width=9    height=15   xoffset=1    yoffset=4    xadvance=10   page=0    chnl=0
char id=227  x=410  y=4    width=9    height=16   xoffset=1    yoffset=3    xadvance=10   page=0    chnl=0
char id=228  x=29   y=128  width=9    height=15   xoffset=1    yoffset=4    xadvance=10   page=0    chnl=0
char id=229  x=433  y=4    width=9    height=16   xoffset=1    yoffset=3    xadvance=10   page=0    chnl=0
char id=230  x=242  y=43   width=16   height=11   xoffset=1    yoffset=8    xadvance=17   page=0    chnl=0
char id=231  x=29   y=468  width=9    height=15   xoffset=1    yoffset=8    xadvance=11   page=0    chnl=0
char id=232  x=441  y=26   width=9    height=15   xoffset=1    yoffset=4    xadvance=11   page=0    chnl=0
char id=233  x=367  y=26   width=9    height=15   xoffset=1    yoffset=4    xadvance=11   page=0    chnl=0
char id=234  x=44   y=26   width=9    height=15   xoffset=1    yoffset=4    xadvance=11   page=0    chnl=0
char id=235  x=55   y=26   width=9    height=15   xoffset=1    yoffset=4    xadvance=11   page=0    chnl=0
char id=236  x=2    y=243  width=5    height=15   xoffset=-1   yoffset=4    xadvance=5    page=0    chnl=0
char id=237  x=2    y=260  width=6    height=15   xoffset=1    yoffset=4    xadvance=5    page=0    chnl=0
char id=238  x=2    y=277  width=6    height=15   xoffset=0    yoffset=4    xadvance=5    page=0    chnl=0
char id=239  x=2    y=294  width=6    height=15   xoffset=-1   yoffset=4    xadvance=4    page=0    chnl=0
char id=240  x=399  y=4    width=9    height=17   xoffset=1    yoffset=2    xadvance=11   page=0    chnl=0
char id=241  x=19   y=26   width=8    height=16   xoffset=1    yoffset=3    xadvance=10   page=0    chnl=0
char id=242  x=49   y=43   width=10   height=15   xoffset=1    yoffset=4    xadvance=12   page=0    chnl=0
char id=243  x=29   y=434  width=10   height=15   xoffset=1    yoffset=4    xadvance=12   page=0    chnl=0
char id=244  x=29   y=400  width=10   height=15   xoffset=1    yoffset=4    xadvance=12   page=0    chnl=0
char id=245  x=421  y=4    width=10   height=16   xoffset=1    yoffset=3    xadvance=12   page=0    chnl=0
char id=246  x=29   y=383  width=10   height=15   xoffset=1    yoffset=4    xadvance=12   page=0    chnl=0
char id=247  x=219  y=43   width=10   height=11   xoffset=1    yoffset=6    xadvance=12   page=0    chnl=0
char id=248  x=87   y=43   width=10   height=14   xoffset=1    yoffset=6    xadvance=12   page=0    chnl=0
char id=249  x=19   y=95   width=8    height=15   xoffset=1    yoffset=4    xadvance=10   page=0    chnl=0
char id=250  x=19   y=163  width=8    height=15   xoffset=1    yoffset=4    xadvance=10   page=0    chnl=0
char id=251  x=19   y=146  width=8    height=15   xoffset=1    yoffset=4    xadvance=10   page=0    chnl=0
char id=252  x=19   y=180  width=8    height=15   xoffset=1    yoffset=4    xadvance=10   page=0    chnl=0
char id=253  x=70   y=4    width=10   height=19   xoffset=0    yoffset=4    xadvance=9    page=0    chnl=0
char id=254  x=59   y=4    width=9    height=19   xoffset=1    yoffset=4    xadvance=11   page=0    chnl=0
char id=255  x=47   y=4    width=10   height=19   xoffset=0    yoffset=4    xadvance=9    page=0    chnl=0
char id=8364 x=61   y=43   width=9    height=15   xoffset=1    yoffset=4    xadvance=11   page=0    chnl=0
kernings count=0
