info face="font2_20" size=20 bold=0 italic=0 charset="" unicode=1 stretchH=100 smooth=1 aa=2 padding=0,0,0,0 spacing=0,0
common lineHeight=23 base=19 scaleW=1 scaleH=1 pages=1 packed=0 alphaChnl=0 redChnl=0 greenChnl=0 blueChnl=0
page id=0 file="font2_20/font2_20.png"
chars count=193
char id=0    x=4    y=2    width=0    height=0    xoffset=0    yoffset=19   xadvance=0    page=0    chnl=0
char id=32   x=0    y=0    width=5    height=0    xoffset=0    yoffset=0    xadvance=5    page=0    chnl=0
char id=33   x=2    y=367  width=3    height=17   xoffset=1    yoffset=3    xadvance=6    page=0    chnl=0
char id=34   x=11   y=203  width=6    height=7    xoffset=0    yoffset=3    xadvance=6    page=0    chnl=0
char id=35   x=93   y=46   width=13   height=17   xoffset=0    yoffset=3    xadvance=13   page=0    chnl=0
char id=36   x=108  y=4    width=11   height=21   xoffset=0    yoffset=1    xadvance=11   page=0    chnl=0
char id=37   x=108  y=46   width=15   height=17   xoffset=0    yoffset=3    xadvance=15   page=0    chnl=0
char id=38   x=78   y=46   width=13   height=17   xoffset=0    yoffset=3    xadvance=13   page=0    chnl=0
char id=39   x=11   y=194  width=3    height=7    xoffset=0    yoffset=3    xadvance=4    page=0    chnl=0
char id=40   x=2    y=4    width=7    height=22   xoffset=0    yoffset=2    xadvance=7    page=0    chnl=0
char id=41   x=2    y=28   width=6    height=22   xoffset=0    yoffset=2    xadvance=7    page=0    chnl=0
char id=42   x=36   y=304  width=10   height=10   xoffset=0    yoffset=3    xadvance=9    page=0    chnl=0
char id=43   x=48   y=323  width=12   height=13   xoffset=0    yoffset=6    xadvance=12   page=0    chnl=0
char id=44   x=2    y=501  width=4    height=7    xoffset=-1   yoffset=16   xadvance=4    page=0    chnl=0
char id=45   x=11   y=232  width=7    height=3    xoffset=0    yoffset=12   xadvance=7    page=0    chnl=0
char id=46   x=16   y=194  width=3    height=4    xoffset=0    yoffset=16   xadvance=4    page=0    chnl=0
char id=47   x=11   y=67   width=8    height=18   xoffset=0    yoffset=3    xadvance=8    page=0    chnl=0
char id=48   x=48   y=141  width=11   height=17   xoffset=0    yoffset=3    xadvance=11   page=0    chnl=0
char id=49   x=2    y=348  width=6    height=17   xoffset=1    yoffset=3    xadvance=11   page=0    chnl=0
char id=50   x=491  y=27   width=11   height=17   xoffset=0    yoffset=3    xadvance=11   page=0    chnl=0
char id=51   x=36   y=46   width=10   height=17   xoffset=0    yoffset=3    xadvance=11   page=0    chnl=0
char id=52   x=48   y=46   width=12   height=17   xoffset=0    yoffset=3    xadvance=12   page=0    chnl=0
char id=53   x=36   y=65   width=10   height=17   xoffset=1    yoffset=3    xadvance=12   page=0    chnl=0
char id=54   x=48   y=65   width=11   height=17   xoffset=0    yoffset=3    xadvance=11   page=0    chnl=0
char id=55   x=48   y=84   width=12   height=17   xoffset=0    yoffset=3    xadvance=12   page=0    chnl=0
char id=56   x=48   y=103  width=11   height=17   xoffset=0    yoffset=3    xadvance=11   page=0    chnl=0
char id=57   x=48   y=122  width=11   height=17   xoffset=0    yoffset=3    xadvance=11   page=0    chnl=0
char id=58   x=2    y=436  width=3    height=13   xoffset=0    yoffset=7    xadvance=4    page=0    chnl=0
char id=59   x=2    y=404  width=4    height=15   xoffset=0    yoffset=7    xadvance=4    page=0    chnl=0
char id=60   x=36   y=291  width=10   height=11   xoffset=0    yoffset=7    xadvance=10   page=0    chnl=0
char id=61   x=36   y=328  width=10   height=7    xoffset=0    yoffset=9    xadvance=10   page=0    chnl=0
char id=62   x=36   y=278  width=10   height=11   xoffset=0    yoffset=7    xadvance=10   page=0    chnl=0
char id=63   x=36   y=84   width=10   height=17   xoffset=0    yoffset=3    xadvance=10   page=0    chnl=0
char id=64   x=88   y=4    width=18   height=21   xoffset=0    yoffset=3    xadvance=18   page=0    chnl=0
char id=65   x=21   y=85   width=13   height=17   xoffset=0    yoffset=3    xadvance=13   page=0    chnl=0
char id=66   x=21   y=142  width=11   height=17   xoffset=1    yoffset=3    xadvance=13   page=0    chnl=0
char id=67   x=21   y=237  width=12   height=17   xoffset=0    yoffset=3    xadvance=13   page=0    chnl=0
char id=68   x=21   y=256  width=12   height=17   xoffset=1    yoffset=3    xadvance=13   page=0    chnl=0
char id=69   x=21   y=275  width=11   height=17   xoffset=1    yoffset=3    xadvance=12   page=0    chnl=0
char id=70   x=21   y=294  width=11   height=17   xoffset=1    yoffset=3    xadvance=12   page=0    chnl=0
char id=71   x=21   y=313  width=13   height=17   xoffset=0    yoffset=3    xadvance=13   page=0    chnl=0
char id=72   x=21   y=351  width=12   height=17   xoffset=1    yoffset=3    xadvance=15   page=0    chnl=0
char id=73   x=2    y=291  width=3    height=17   xoffset=1    yoffset=3    xadvance=6    page=0    chnl=0
char id=74   x=21   y=370  width=11   height=17   xoffset=0    yoffset=3    xadvance=12   page=0    chnl=0
char id=75   x=21   y=389  width=12   height=17   xoffset=1    yoffset=3    xadvance=13   page=0    chnl=0
char id=76   x=21   y=408  width=10   height=17   xoffset=1    yoffset=3    xadvance=11   page=0    chnl=0
char id=77   x=128  y=27   width=16   height=17   xoffset=1    yoffset=3    xadvance=18   page=0    chnl=0
char id=78   x=21   y=427  width=12   height=17   xoffset=1    yoffset=3    xadvance=15   page=0    chnl=0
char id=79   x=21   y=446  width=13   height=17   xoffset=0    yoffset=3    xadvance=13   page=0    chnl=0
char id=80   x=21   y=465  width=12   height=17   xoffset=1    yoffset=3    xadvance=13   page=0    chnl=0
char id=81   x=365  y=4    width=13   height=19   xoffset=0    yoffset=3    xadvance=13   page=0    chnl=0
char id=82   x=177  y=27   width=12   height=17   xoffset=1    yoffset=3    xadvance=13   page=0    chnl=0
char id=83   x=230  y=27   width=12   height=17   xoffset=0    yoffset=3    xadvance=12   page=0    chnl=0
char id=84   x=271  y=27   width=13   height=17   xoffset=0    yoffset=3    xadvance=13   page=0    chnl=0
char id=85   x=286  y=27   width=12   height=17   xoffset=0    yoffset=3    xadvance=12   page=0    chnl=0
char id=86   x=300  y=27   width=13   height=17   xoffset=0    yoffset=3    xadvance=13   page=0    chnl=0
char id=87   x=315  y=27   width=18   height=17   xoffset=0    yoffset=3    xadvance=18   page=0    chnl=0
char id=88   x=335  y=27   width=13   height=17   xoffset=0    yoffset=3    xadvance=13   page=0    chnl=0
char id=89   x=350  y=27   width=12   height=17   xoffset=0    yoffset=3    xadvance=12   page=0    chnl=0
char id=90   x=364  y=27   width=12   height=17   xoffset=0    yoffset=3    xadvance=12   page=0    chnl=0
char id=91   x=2    y=75   width=5    height=21   xoffset=0    yoffset=2    xadvance=5    page=0    chnl=0
char id=92   x=488  y=4    width=9    height=18   xoffset=0    yoffset=3    xadvance=8    page=0    chnl=0
char id=93   x=2    y=98   width=5    height=21   xoffset=0    yoffset=2    xadvance=6    page=0    chnl=0
char id=94   x=11   y=161  width=8    height=9    xoffset=0    yoffset=4    xadvance=8    page=0    chnl=0
char id=95   x=48   y=382  width=11   height=3    xoffset=0    yoffset=18   xadvance=11   page=0    chnl=0
char id=96   x=11   y=212  width=5    height=5    xoffset=0    yoffset=3    xadvance=6    page=0    chnl=0
char id=97   x=36   y=250  width=10   height=13   xoffset=0    yoffset=7    xadvance=10   page=0    chnl=0
char id=98   x=378  y=27   width=11   height=17   xoffset=0    yoffset=3    xadvance=11   page=0    chnl=0
char id=99   x=48   y=352  width=11   height=13   xoffset=0    yoffset=7    xadvance=11   page=0    chnl=0
char id=100  x=391  y=27   width=11   height=17   xoffset=0    yoffset=3    xadvance=11   page=0    chnl=0
char id=101  x=48   y=367  width=11   height=13   xoffset=0    yoffset=7    xadvance=11   page=0    chnl=0
char id=102  x=11   y=48   width=8    height=17   xoffset=0    yoffset=3    xadvance=8    page=0    chnl=0
char id=103  x=416  y=27   width=11   height=17   xoffset=0    yoffset=7    xadvance=11   page=0    chnl=0
char id=104  x=429  y=27   width=10   height=17   xoffset=0    yoffset=3    xadvance=10   page=0    chnl=0
char id=105  x=2    y=310  width=3    height=17   xoffset=1    yoffset=3    xadvance=5    page=0    chnl=0
char id=106  x=2    y=121  width=5    height=21   xoffset=-2   yoffset=3    xadvance=4    page=0    chnl=0
char id=107  x=441  y=27   width=10   height=17   xoffset=0    yoffset=3    xadvance=10   page=0    chnl=0
char id=108  x=2    y=329  width=3    height=17   xoffset=1    yoffset=3    xadvance=5    page=0    chnl=0
char id=109  x=158  y=46   width=16   height=13   xoffset=0    yoffset=7    xadvance=17   page=0    chnl=0
char id=110  x=36   y=235  width=10   height=13   xoffset=0    yoffset=7    xadvance=10   page=0    chnl=0
char id=111  x=48   y=308  width=11   height=13   xoffset=0    yoffset=7    xadvance=12   page=0    chnl=0
char id=112  x=453  y=27   width=11   height=17   xoffset=0    yoffset=7    xadvance=11   page=0    chnl=0
char id=113  x=466  y=27   width=11   height=17   xoffset=0    yoffset=7    xadvance=12   page=0    chnl=0
char id=114  x=2    y=421  width=7    height=13   xoffset=0    yoffset=7    xadvance=7    page=0    chnl=0
char id=115  x=36   y=175  width=10   height=13   xoffset=0    yoffset=7    xadvance=10   page=0    chnl=0
char id=116  x=11   y=144  width=8    height=15   xoffset=0    yoffset=5    xadvance=8    page=0    chnl=0
char id=117  x=36   y=190  width=10   height=13   xoffset=0    yoffset=7    xadvance=10   page=0    chnl=0
char id=118  x=36   y=160  width=10   height=13   xoffset=0    yoffset=7    xadvance=10   page=0    chnl=0
char id=119  x=141  y=46   width=15   height=13   xoffset=0    yoffset=7    xadvance=15   page=0    chnl=0
char id=120  x=36   y=205  width=10   height=13   xoffset=0    yoffset=7    xadvance=10   page=0    chnl=0
char id=121  x=479  y=27   width=10   height=17   xoffset=0    yoffset=7    xadvance=9    page=0    chnl=0
char id=122  x=36   y=220  width=10   height=13   xoffset=0    yoffset=7    xadvance=10   page=0    chnl=0
char id=123  x=2    y=52   width=7    height=21   xoffset=0    yoffset=3    xadvance=7    page=0    chnl=0
char id=124  x=2    y=232  width=3    height=19   xoffset=1    yoffset=3    xadvance=6    page=0    chnl=0
char id=125  x=11   y=4    width=8    height=21   xoffset=-1   yoffset=3    xadvance=7    page=0    chnl=0
char id=126  x=195  y=46   width=13   height=6    xoffset=0    yoffset=10   xadvance=13   page=0    chnl=0
char id=160  x=6    y=2    width=0    height=0    xoffset=0    yoffset=19   xadvance=5    page=0    chnl=0
char id=161  x=2    y=386  width=3    height=16   xoffset=1    yoffset=7    xadvance=5    page=0    chnl=0
char id=162  x=21   y=46   width=11   height=18   xoffset=0    yoffset=4    xadvance=11   page=0    chnl=0
char id=163  x=244  y=27   width=12   height=17   xoffset=0    yoffset=3    xadvance=12   page=0    chnl=0
char id=164  x=125  y=46   width=14   height=14   xoffset=0    yoffset=6    xadvance=14   page=0    chnl=0
char id=165  x=216  y=27   width=12   height=17   xoffset=-1   yoffset=3    xadvance=10   page=0    chnl=0
char id=166  x=2    y=210  width=3    height=20   xoffset=0    yoffset=3    xadvance=4    page=0    chnl=0
char id=167  x=21   y=4    width=12   height=21   xoffset=0    yoffset=3    xadvance=12   page=0    chnl=0
char id=168  x=11   y=237  width=8    height=3    xoffset=0    yoffset=4    xadvance=8    page=0    chnl=0
char id=169  x=36   y=27   width=16   height=17   xoffset=0    yoffset=3    xadvance=16   page=0    chnl=0
char id=170  x=11   y=183  width=8    height=9    xoffset=0    yoffset=4    xadvance=9    page=0    chnl=0
char id=171  x=36   y=316  width=9    height=10   xoffset=0    yoffset=8    xadvance=9    page=0    chnl=0
char id=172  x=499  y=16   width=9    height=5    xoffset=1    yoffset=11   xadvance=12   page=0    chnl=0
char id=173  x=11   y=242  width=7    height=3    xoffset=0    yoffset=12   xadvance=7    page=0    chnl=0
char id=174  x=146  y=27   width=16   height=17   xoffset=0    yoffset=3    xadvance=16   page=0    chnl=0
char id=175  x=21   y=503  width=9    height=3    xoffset=0    yoffset=4    xadvance=9    page=0    chnl=0
char id=176  x=2    y=492  width=7    height=7    xoffset=0    yoffset=3    xadvance=7    page=0    chnl=0
char id=177  x=48   y=291  width=11   height=15   xoffset=0    yoffset=5    xadvance=11   page=0    chnl=0
char id=178  x=2    y=473  width=7    height=9    xoffset=0    yoffset=4    xadvance=8    page=0    chnl=0
char id=179  x=2    y=462  width=7    height=9    xoffset=0    yoffset=4    xadvance=7    page=0    chnl=0
char id=180  x=11   y=225  width=5    height=5    xoffset=1    yoffset=3    xadvance=6    page=0    chnl=0
char id=181  x=21   y=332  width=10   height=17   xoffset=0    yoffset=7    xadvance=11   page=0    chnl=0
char id=182  x=11   y=125  width=8    height=17   xoffset=0    yoffset=3    xadvance=9    page=0    chnl=0
char id=183  x=11   y=219  width=3    height=4    xoffset=0    yoffset=10   xadvance=4    page=0    chnl=0
char id=184  x=2    y=484  width=4    height=6    xoffset=1    yoffset=18   xadvance=6    page=0    chnl=0
char id=185  x=2    y=451  width=5    height=9    xoffset=0    yoffset=4    xadvance=7    page=0    chnl=0
char id=186  x=11   y=172  width=8    height=9    xoffset=0    yoffset=4    xadvance=9    page=0    chnl=0
char id=187  x=499  y=4    width=9    height=10   xoffset=0    yoffset=8    xadvance=9    page=0    chnl=0
char id=188  x=111  y=27   width=15   height=16   xoffset=0    yoffset=4    xadvance=15   page=0    chnl=0
char id=189  x=93   y=27   width=16   height=16   xoffset=0    yoffset=4    xadvance=16   page=0    chnl=0
char id=190  x=76   y=27   width=15   height=16   xoffset=0    yoffset=4    xadvance=15   page=0    chnl=0
char id=191  x=21   y=218  width=10   height=17   xoffset=0    yoffset=7    xadvance=10   page=0    chnl=0
char id=192  x=121  y=4    width=13   height=20   xoffset=0    yoffset=0    xadvance=13   page=0    chnl=0
char id=193  x=136  y=4    width=13   height=20   xoffset=0    yoffset=0    xadvance=13   page=0    chnl=0
char id=194  x=151  y=4    width=13   height=20   xoffset=0    yoffset=0    xadvance=13   page=0    chnl=0
char id=195  x=166  y=4    width=13   height=20   xoffset=0    yoffset=0    xadvance=13   page=0    chnl=0
char id=196  x=394  y=4    width=14   height=19   xoffset=-1   yoffset=1    xadvance=12   page=0    chnl=0
char id=197  x=35   y=4    width=14   height=21   xoffset=-1   yoffset=-1   xadvance=12   page=0    chnl=0
char id=198  x=54   y=27   width=20   height=17   xoffset=-1   yoffset=3    xadvance=19   page=0    chnl=0
char id=199  x=181  y=4    width=13   height=21   xoffset=0    yoffset=3    xadvance=13   page=0    chnl=0
char id=200  x=196  y=4    width=11   height=20   xoffset=1    yoffset=0    xadvance=12   page=0    chnl=0
char id=201  x=209  y=4    width=11   height=20   xoffset=1    yoffset=0    xadvance=12   page=0    chnl=0
char id=202  x=222  y=4    width=11   height=20   xoffset=1    yoffset=0    xadvance=12   page=0    chnl=0
char id=203  x=410  y=4    width=11   height=19   xoffset=1    yoffset=1    xadvance=12   page=0    chnl=0
char id=204  x=2    y=144  width=6    height=20   xoffset=-1   yoffset=0    xadvance=6    page=0    chnl=0
char id=205  x=2    y=166  width=6    height=20   xoffset=1    yoffset=0    xadvance=6    page=0    chnl=0
char id=206  x=2    y=188  width=7    height=20   xoffset=-1   yoffset=0    xadvance=6    page=0    chnl=0
char id=207  x=11   y=27   width=8    height=19   xoffset=-1   yoffset=1    xadvance=6    page=0    chnl=0
char id=208  x=62   y=46   width=14   height=17   xoffset=0    yoffset=3    xadvance=14   page=0    chnl=0
char id=209  x=235  y=4    width=12   height=20   xoffset=1    yoffset=0    xadvance=15   page=0    chnl=0
char id=210  x=249  y=4    width=13   height=20   xoffset=0    yoffset=0    xadvance=13   page=0    chnl=0
char id=211  x=264  y=4    width=13   height=20   xoffset=0    yoffset=0    xadvance=13   page=0    chnl=0
char id=212  x=279  y=4    width=13   height=20   xoffset=0    yoffset=0    xadvance=13   page=0    chnl=0
char id=213  x=294  y=4    width=13   height=20   xoffset=0    yoffset=0    xadvance=13   page=0    chnl=0
char id=214  x=423  y=4    width=13   height=20   xoffset=0    yoffset=0    xadvance=13   page=0    chnl=0
char id=215  x=36   y=265  width=10   height=11   xoffset=0    yoffset=7    xadvance=11   page=0    chnl=0
char id=216  x=21   y=27   width=13   height=17   xoffset=0    yoffset=3    xadvance=13   page=0    chnl=0
char id=217  x=309  y=4    width=12   height=20   xoffset=0    yoffset=0    xadvance=12   page=0    chnl=0
char id=218  x=323  y=4    width=12   height=20   xoffset=0    yoffset=0    xadvance=12   page=0    chnl=0
char id=219  x=337  y=4    width=12   height=20   xoffset=0    yoffset=0    xadvance=12   page=0    chnl=0
char id=220  x=380  y=4    width=12   height=19   xoffset=0    yoffset=1    xadvance=12   page=0    chnl=0
char id=221  x=351  y=4    width=12   height=20   xoffset=0    yoffset=0    xadvance=12   page=0    chnl=0
char id=222  x=21   y=484  width=11   height=17   xoffset=1    yoffset=3    xadvance=12   page=0    chnl=0
char id=223  x=203  y=27   width=11   height=17   xoffset=0    yoffset=3    xadvance=12   page=0    chnl=0
char id=224  x=21   y=161  width=10   height=17   xoffset=0    yoffset=3    xadvance=10   page=0    chnl=0
char id=225  x=21   y=199  width=10   height=17   xoffset=0    yoffset=3    xadvance=10   page=0    chnl=0
char id=226  x=21   y=180  width=10   height=17   xoffset=0    yoffset=3    xadvance=10   page=0    chnl=0
char id=227  x=451  y=4    width=10   height=17   xoffset=0    yoffset=3    xadvance=10   page=0    chnl=0
char id=228  x=404  y=27   width=10   height=17   xoffset=0    yoffset=3    xadvance=10   page=0    chnl=0
char id=229  x=476  y=4    width=10   height=18   xoffset=0    yoffset=2    xadvance=10   page=0    chnl=0
char id=230  x=176  y=46   width=17   height=13   xoffset=0    yoffset=7    xadvance=17   page=0    chnl=0
char id=231  x=48   y=217  width=11   height=17   xoffset=0    yoffset=7    xadvance=11   page=0    chnl=0
char id=232  x=258  y=27   width=11   height=17   xoffset=0    yoffset=3    xadvance=11   page=0    chnl=0
char id=233  x=164  y=27   width=11   height=17   xoffset=0    yoffset=3    xadvance=11   page=0    chnl=0
char id=234  x=21   y=104  width=11   height=17   xoffset=0    yoffset=3    xadvance=11   page=0    chnl=0
char id=235  x=21   y=123  width=11   height=17   xoffset=0    yoffset=3    xadvance=11   page=0    chnl=0
char id=236  x=2    y=253  width=6    height=17   xoffset=-1   yoffset=3    xadvance=5    page=0    chnl=0
char id=237  x=2    y=272  width=6    height=17   xoffset=1    yoffset=3    xadvance=5    page=0    chnl=0
char id=238  x=11   y=87   width=8    height=17   xoffset=-1   yoffset=3    xadvance=5    page=0    chnl=0
char id=239  x=11   y=106  width=8    height=17   xoffset=-2   yoffset=3    xadvance=4    page=0    chnl=0
char id=240  x=438  y=4    width=11   height=18   xoffset=0    yoffset=2    xadvance=11   page=0    chnl=0
char id=241  x=21   y=66   width=10   height=17   xoffset=0    yoffset=3    xadvance=10   page=0    chnl=0
char id=242  x=48   y=236  width=11   height=17   xoffset=0    yoffset=3    xadvance=12   page=0    chnl=0
char id=243  x=48   y=198  width=11   height=17   xoffset=0    yoffset=3    xadvance=12   page=0    chnl=0
char id=244  x=48   y=179  width=11   height=17   xoffset=0    yoffset=3    xadvance=12   page=0    chnl=0
char id=245  x=463  y=4    width=11   height=17   xoffset=0    yoffset=3    xadvance=12   page=0    chnl=0
char id=246  x=48   y=160  width=11   height=17   xoffset=0    yoffset=3    xadvance=12   page=0    chnl=0
char id=247  x=48   y=338  width=12   height=12   xoffset=0    yoffset=6    xadvance=12   page=0    chnl=0
char id=248  x=48   y=274  width=11   height=15   xoffset=0    yoffset=6    xadvance=12   page=0    chnl=0
char id=249  x=191  y=27   width=10   height=17   xoffset=0    yoffset=3    xadvance=10   page=0    chnl=0
char id=250  x=36   y=122  width=10   height=17   xoffset=0    yoffset=3    xadvance=10   page=0    chnl=0
char id=251  x=36   y=103  width=10   height=17   xoffset=0    yoffset=3    xadvance=10   page=0    chnl=0
char id=252  x=36   y=141  width=10   height=17   xoffset=0    yoffset=3    xadvance=10   page=0    chnl=0
char id=253  x=76   y=4    width=10   height=21   xoffset=0    yoffset=3    xadvance=9    page=0    chnl=0
char id=254  x=63   y=4    width=11   height=21   xoffset=0    yoffset=3    xadvance=11   page=0    chnl=0
char id=255  x=51   y=4    width=10   height=21   xoffset=0    yoffset=3    xadvance=9    page=0    chnl=0
char id=8364 x=48   y=255  width=11   height=17   xoffset=0    yoffset=3    xadvance=11   page=0    chnl=0
kernings count=0
